%YAML 1.1
%TAG !u! tag:unity3d.com,2011:
--- !u!114 &11400000
MonoBehaviour:
  m_ObjectHideFlags: 0
  m_CorrespondingSourceObject: {fileID: 0}
  m_PrefabInternal: {fileID: 0}
  m_GameObject: {fileID: 0}
  m_Enabled: 1
  m_EditorHideFlags: 0
  m_Script: {fileID: 11500000, guid: 203fddbb4c7bcdb448fd5f63eeb57ef7, type: 3}
  m_Name: SlotsHandler
  m_EditorClassIdentifier: 
  rollSpeed: 0.01
  rollTime: 10
